[
    {
        "title": "car.title",
        "image": "icon-car.png",
        "locale": "cs,en",
        "children": [
            {
                "title": "car.liability",
                "locale": "",
                "link": "PersonalInsurance:carLiability",
                "online": {
                    "cs":"http://autopojisteni.slavia-pojistovna.cz/Controllers/FormSteps/_PovSlavia_Step1.php",
                    "en":"http://autopojisteni.slavia-pojistovna.cz/Controllers/FormSteps/_PovSlavia_Step1.php"
                }
            },
            {
                "title": "car.accident",
                "locale": "en",
                "link": "PersonalInsurance:carAccident",
                "online" : {

                }
            },
            {
                "title": "car.krystof",
                "locale": "none",
                "link": "PersonalInsurance:carKrystof"
            },
            {
                "title": "car.injury",
                "locale": "none",
                "link": "PersonalInsurance:carInjury"
            }
        ]
    },
    {
        "title": "travel.title",
        "image": "icon-compas.png",
        "locale": "cs,en",
        "children": [
            {
                "title": "travel.world",
                "locale": "",
                "link": "PersonalInsurance:travelWorld",
                "online": {
                    "cs":"http://travel.slavia-pojistovna.cz/Controllers/FormSteps/_TravelSlavia_Step1.php",
                    "en":"http://travel.slavia-pojistovna.cz/Controllers/FormSteps/_TravelSlavia_Step1.php"
                }
            },
            {
                "title": "travel.euro",
                "locale": "",
                "link": "PersonalInsurance:travelEuro",
                "online": {
                    "cs":"http://travel.slavia-pojistovna.cz/Controllers/FormSteps/_TravelSlavia_Step1.php",
                    "en":"http://travel.slavia-pojistovna.cz/Controllers/FormSteps/_TravelSlavia_Step1.php"
                }
            }
        ]
    },
    {
        "title": "home.title",
        "image": "icon-key.png",
        "locale": "cs,en",
        "children": [
            {
                "title": "home.home",
                "locale": "",
                "link": "PersonalInsurance:home"
            }
        ]
    },
    {
        "title": "health.title",
        "image": "icon-doc.png",
        "locale": "cs,en,ru,vi",
        "children": [
            {
                "title": "health.urgent",
                "locale": "",
                "link": "PersonalInsurance:healthUrgent",
                "online": {
                    "cs":"http://kalkulacka-pojisteni-cizincu.slavia-pojistovna.cz/Controllers/FormSteps/_Foreigners_Step1.php",
                    "ru":"http://kalkulacka-pojisteni-cizincu.slavia-pojistovna.cz/Controllers/FormSteps/_ForeignersRu_Step1.php",
                    "vi":"http://kalkulacka-pojisteni-cizincu.slavia-pojistovna.cz/Controllers/FormSteps/_ForeignersRu_Step1.php",
                    "en":"http://kalkulacka-pojisteni-cizincu.slavia-pojistovna.cz/Controllers/FormSteps/_ForeignersEn_Step1.php"
                }
            },
            {
                "title": "health.complex",
                "link": "PersonalInsurance:healthComplex",
                "locale": "",
                "online": {
                    "cs":"http://kalkulacka-pojisteni-cizincu.slavia-pojistovna.cz/Controllers/FormSteps/_Foreigners_Step1.php",
                    "ru":"http://kalkulacka-pojisteni-cizincu.slavia-pojistovna.cz/Controllers/FormSteps/_ForeignersRu_Step1.php",
                    "vi":"http://kalkulacka-pojisteni-cizincu.slavia-pojistovna.cz/Controllers/FormSteps/_ForeignersRu_Step1.php",
                    "en":"http://kalkulacka-pojisteni-cizincu.slavia-pojistovna.cz/Controllers/FormSteps/_ForeignersEn_Step1.php"
                }
            }
        ]
    },
    {
        "title": "civic.title",
        "image": "icon-hammer.png",
        "locale": "cs",
        "children": [
            {
                "title": "civic.responsibility",
                "locale": "",
                "link": "PersonalInsurance:civic"
            }
        ]
    },
    {
        "title": "other.title",
        "image": "icon-more.png",
        "locale": "cs,en",
        "children": [
            {
                "title": "other.healthPlus",
                "locale": "cs",
                "link": "PersonalInsurance:healthPlus"
            },
            {
                "title": "other.noBlood",
                "locale": "cs",
                "link": "PersonalInsurance:noBlood"
            },
            {
                "title": "other.buildingLiability",
                "locale": "en",
                "link": "PersonalInsurance:buildingLiability"
            },
            {
                "title": "other.animals",
                "locale": "cs,en",
                "link": "PersonalInsurance:animals"
            }
        ]
    }
]